--------------------------------------------------------------------------------------------------
本メールはシステムからの自動配信メールです。
--------------------------------------------------------------------------------------------------

この度はお問い合わせいただき、ありがとうございました。

お問い合わせフォームより、以下の内容で送信いたしました。

その他、何かご不明な点などございましたら、お気軽にお問い合わせください。

以下の内容で間違いがないかご確認ください。
内容に不備がありましたら、本メールにご返信ください。

━━━━━━━━━━━━━━━━━━━━━━━━━━━━━━━━━

受付日時：%{Y}年%{n}月%{j}日 %{H}:%{i}:%{s}
通番 : {serialNumber}

■お問い合わせ情報

ご用件　　　　： {description}[raw]
お問い合わせ内容：
{inquiry}[raw]

■お客様情報

会社名　　　　： {organization}[raw]
お名前　　　　： {family-name}[raw] {given-name}[raw]
メールアドレス： {email}
お電話番号　　： {tel}
ご住所　　　　： 〒{postal-code}　{address-level1}　{address1}　{address2}


━━━━━━━━━━━━━━━━━━━━━━━━━━━━━━━━━

本メールについて心あたりがない場合は、大変お手数ですが
本メールをご返送いただきますようお願い申し上げます。

--------------------------------------------------------------------------------------------------
%{BLOG_NAME}

〒000-0000
○○県○○○市○○区 ××の××の××
電話番号： 123-456-7890
E-mail： ■■■@■■■■.■■
